module gitlab.com/egory4eff-x/grpc/grpc-gateway

go 1.19

require (
	github.com/go-chi/chi v1.5.4
	github.com/go-chi/chi/v5 v5.0.8
	github.com/go-chi/cors v1.2.1
	github.com/golang-jwt/jwt/v4 v4.5.0
	github.com/golang/protobuf v1.5.3
	github.com/google/uuid v1.3.0
	github.com/joho/godotenv v1.5.1
	github.com/json-iterator/go v1.1.12
	github.com/ptflp/godecoder v0.0.1
	github.com/rabbitmq/amqp091-go v1.8.1
	go.uber.org/zap v1.24.0
	golang.org/x/crypto v0.10.0
	golang.org/x/sync v0.3.0
	google.golang.org/grpc v1.56.1
	google.golang.org/protobuf v1.31.0
)

require (
	github.com/modern-go/concurrent v0.0.0-20180228061459-e0a39a4cb421 // indirect
	github.com/modern-go/reflect2 v1.0.2 // indirect
	go.uber.org/atomic v1.7.0 // indirect
	go.uber.org/multierr v1.6.0 // indirect
	golang.org/x/net v0.10.0 // indirect
	golang.org/x/sys v0.9.0 // indirect
	golang.org/x/text v0.10.0 // indirect
	google.golang.org/genproto v0.0.0-20230410155749-daa745c078e1 // indirect
)
